{
    "name": "GameplayManagerInputs",
    "maps": [
        {
            "name": "GameplayManager",
            "id": "f633a6a4-89e2-4657-bce8-4eaf47a7e2c5",
            "actions": [
                {
                    "name": "Pause",
                    "type": "Button",
                    "id": "ae8cc75c-d643-45b3-8d4d-e57623a9a188",
                    "expectedControlType": "Button",
                    "processors": "",
                    "interactions": "Press(behavior=1)"
                }
            ],
            "bindings": [
                {
                    "name": "",
                    "id": "b6104e4d-9190-4a8c-8095-eda934db8a23",
                    "path": "<Keyboard>/escape",
                    "interactions": "",
                    "processors": "",
                    "groups": "",
                    "action": "Pause",
                    "isComposite": false,
                    "isPartOfComposite": false
                }
            ]
        }
    ],
    "controlSchemes": []
}